Introducción al procesamiento, visualización y análisis de datos espaciales en R - AM
…
group_by() toma una tabla existente y la convierte en una tabla agrupada donde las operaciones se realizan “por grupo”. Revise el objeto datg y verá que los datos en sí mismos no han cambiado. Sin embargo, los datos están agrupados en 31 departamentos.

Ahora podemos utilizar esa tabla para resumir los datos con algunas estadísticas deseadas

Code

dat_elev_sum <- 
    summarize(datg,
              mean_elev = mean(elevation, na.rm=T),
              sd_elev = sd(elevation, na.rm=T),
              n = n())

dat_elev_sum

# A tibble: 68 × 4
   stateProvince mean_elev sd_elev     n
   <chr>             <dbl>   <dbl> <int>
 1 Amazonas           NaN      NA     96
 2 Ancash             NaN      NA     18
 3 Antioquia         2062.    713.    30
 4 Apurimac           NaN      NA     20
 5 Ayacucho           NaN      NA      5
 6 Azuay              NaN      NA      2
 7 Bogotá, D.C.      2794      NA      1
 8 Bolívar           1106.      0      3
 9 Boyacá            2188.   1085.    69
10 CaJamarca          NaN      NA      1
# ℹ 58 more rows
…
