Introducción al procesamiento, visualización y análisis de datos espaciales en R - AM
…
group_by() toma una tabla existente y la convierte en una tabla agrupada donde las operaciones se realizan “por grupo”. Revise el objeto datg y verá que los datos en sí mismos no han cambiado. Sin embargo, los datos están agrupados en 31 departamentos.

Ahora podemos utilizar esa tabla para resumir los datos con algunas estadísticas deseadas

Code

dat_elev_sum <- 
    summarize(datg,
              mean_elev = mean(elevation, na.rm=T),
              sd_elev = sd(elevation, na.rm=T),
              n = n())
dat_elev_sum

# A tibble: 62 × 4
   stateProvince mean_elev sd_elev     n
   <chr>             <dbl>   <dbl> <int>
 1 Amazonas           NaN      NA     48
 2 Ancash             NaN      NA      9
 3 Antioquia         1797.    627.    16
 4 Apurimac           NaN      NA      7
 5 Ayacucho           NaN      NA      3
 6 Azuay              NaN      NA      2
 7 Bolívar           1106.     NA      1
 8 Boyacá            2208.   1087.    37
 9 Cajamarca          NaN      NA     56
10 Caldas            3430.    414.     2
# ℹ 52 more rows
…
